id	schueler	frauen	auslaender	fremdsprachig
301	657	314	63	74
302	93	36	7	7
303	226	115	17	20
304	144	69	15	15
305	139	62	8	1
306	1453	706	295	287
307	183	92	14	12
309	65	35	0	0
310	387	192	15	27
311	382	188	24	7
312	241	118	12	12
321	504	247	73	100
322	16	5	0	0
323	60	25	2	4
326	68	38	4	1
329	1809	866	421	639
331	345	157	56	43
332	416	213	11	17
333	190	83	28	25
334	47	22	0	0
336	19	8	0	0
337	460	228	61	57
338	164	84	16	18
339	46	19	0	2
341	67	28	1	42
342	318	155	64	113
344	103	51	0	0
345	108	44	37	47
351	11021	5393	2217	3492
352	660	317	48	49
353	409	193	35	48
354	186	95	3	9
355	3779	1859	644	1250
356	1237	599	323	433
357	64	29	2	4
358	267	133	23	39
359	468	243	21	2
360	967	489	73	126
361	1027	500	311	433
362	1195	571	309	416
363	1372	654	500	800
371	5772	2882	1957	2612
372	245	113	22	8
381	224	116	13	17
382	61	26	0	4
383	393	200	79	82
385	109	41	8	6
386	214	102	7	5
387	427	210	113	158
388	87	42	4	0
390	120	58	12	18
391	91	45	1	1
392	398	190	111	138
393	49	21	0	1
394	71	28	6	4
401	90	44	5	13
402	63	31	4	3
403	73	33	9	6
404	1692	820	200	413
405	166	82	4	7
406	280	112	13	21
407	167	86	0	2
408	37	16	1	3
409	311	147	28	33
411	55	26	0	1
412	682	338	125	169
413	316	160	20	24
414	172	70	3	0
415	126	74	4	6
417	44	22	0	0
418	319	168	62	101
420	195	96	78	109
424	293	138	5	3
431	336	167	50	61
432	66	34	4	6
433	71	28	3	21
434	175	82	13	13
435	60	29	0	8
436	48	23	12	16
437	17	6	0	6
438	109	50	13	16
439	117	55	12	10
440	19	11	5	7
441	73	31	5	5
442	18	10	3	5
443	696	316	213	164
444	176	74	22	23
445	103	52	5	6
446	536	246	78	122
447	13	3	4	7
448	89	42	4	5
491	52	23	8	8
492	218	130	35	37
493	52	19	11	10
494	45	27	0	19
495	53	27	12	26
496	602	300	91	113
497	39	16	8	6
498	79	43	28	27
499	45	21	7	6
500	42	27	11	11
501	44	21	4	9
502	57	30	6	5
533	326	160	21	27
534	56	31	1	3
536	16	8	0	0
537	15	6	0	1
538	306	148	20	27
539	73	37	0	5
540	591	292	62	90
541	37	17	0	0
542	34	15	0	3
543	38	16	1	4
544	378	188	96	137
545	12	6	0	1
546	1113	555	169	270
547	14	7	1	1
549	32	15	4	9
551	541	270	98	189
552	548	262	47	27
553	15	8	1	1
554	81	37	1	0
556	15	2	1	0
557	87	39	2	3
561	403	201	21	14
562	256	122	3	7
563	832	433	81	60
564	79	37	4	3
565	79	39	14	12
566	70	37	1	1
567	375	186	14	9
571	119	46	13	6
572	218	102	9	7
573	346	170	27	28
574	52	25	1	1
575	39	23	4	5
576	307	146	41	33
577	86	33	14	13
578	25	11	0	0
579	77	43	1	1
580	82	35	2	2
581	605	314	169	204
582	43	20	2	7
584	220	105	57	57
585	77	33	5	1
586	20	10	1	1
587	311	142	47	56
588	11	6	0	1
589	33	16	0	3
590	296	129	30	29
591	10	8	0	0
593	521	263	114	100
594	278	136	24	30
602	169	82	1	0
603	238	119	25	20
604	41	22	0	0
605	126	68	0	1
606	56	27	0	3
607	46	23	7	8
608	415	201	27	59
609	18	11	0	1
610	54	22	0	2
611	88	43	1	1
612	514	253	55	15
614	151	72	1	1
615	82	33	0	0
616	1330	668	170	247
617	67	23	0	2
619	420	186	26	34
620	66	36	1	0
622	61	36	4	5
623	214	108	14	20
624	75	38	0	0
625	37	18	1	0
626	180	89	4	5
627	1084	538	230	339
628	143	67	10	10
629	56	28	0	3
630	39	19	2	0
631	41	22	3	0
632	582	267	26	20
662	83	45	6	5
663	69	31	7	3
664	19	7	2	1
665	23	9	0	0
666	15	7	0	0
667	336	167	38	31
668	266	134	12	10
669	31	19	7	7
670	587	277	76	142
671	37	18	10	6
681	14	5	0	0
682	140	80	25	15
683	11	8	0	1
684	21	13	0	9
687	20	12	0	2
690	118	60	13	11
691	44	19	8	6
692	41	17	3	1
694	34	13	5	3
696	20	9	0	3
697	364	179	66	51
699	17	6	0	2
700	943	489	309	181
701	28	14	3	2
702	17	5	0	0
703	277	131	40	54
706	133	60	4	26
708	8	2	1	0
709	6	3	0	0
711	16	10	0	3
712	12	6	0	4
713	437	217	32	78
721	94	46	2	4
722	43	21	5	6
723	490	240	81	86
724	66	30	3	11
725	35	12	3	2
731	115	51	15	42
732	152	64	7	13
733	404	211	120	175
735	22	9	0	1
737	48	20	1	3
738	51	27	0	3
739	317	122	40	52
742	76	40	6	6
743	796	388	193	375
744	374	205	54	73
745	195	99	18	59
746	156	84	5	23
747	37	20	1	1
748	74	36	1	2
749	388	194	67	116
750	102	52	2	5
751	387	201	15	14
754	119	53	1	0
755	177	102	14	21
756	125	71	10	15
761	92	37	7	2
762	256	105	8	7
763	211	109	7	5
764	29	20	2	1
766	64	24	0	0
767	94	46	3	4
768	1237	593	120	190
769	289	139	25	20
781	9	4	0	0
782	25	14	4	2
783	163	68	21	15
784	84	42	5	3
785	563	301	76	92
786	41	21	2	7
791	125	53	1	1
792	219	118	29	29
793	90	42	12	10
794	314	152	20	21
841	67	37	9	8
842	66	38	2	1
843	703	334	176	212
852	119	62	3	1
853	124	68	3	3
855	807	406	28	47
861	1161	561	162	129
863	90	47	2	2
866	124	71	5	0
867	86	39	0	0
869	109	57	4	4
870	478	227	112	168
872	69	32	2	2
873	40	23	0	2
875	13	8	0	0
876	144	68	4	8
877	51	23	2	1
878	25	16	0	0
879	353	179	10	16
880	166	87	3	6
881	12	7	0	0
883	199	99	17	24
884	217	95	22	17
885	204	96	9	14
886	465	236	12	18
888	83	43	6	6
901	247	120	2	2
902	1121	534	83	146
903	335	171	4	17
904	123	55	0	0
905	230	107	2	2
906	114	61	3	4
907	393	196	15	29
908	142	69	2	8
909	156	72	30	46
921	95	45	1	3
922	119	55	3	3
923	155	80	7	4
924	48	32	0	0
925	65	26	0	0
927	56	26	1	3
928	611	297	76	125
929	413	211	30	37
931	152	72	0	2
934	243	103	20	27
935	51	23	1	1
936	24	10	2	2
938	360	169	31	25
939	1603	795	215	278
941	362	171	7	12
942	3923	1990	594	1012
943	79	27	0	0
944	649	315	45	63
945	194	99	0	1
946	17	8	2	2
947	17	8	0	0
948	65	31	2	3
951	92	41	5	4
952	122	63	1	0
953	147	76	9	10
954	638	350	75	98
955	444	215	23	27
956	459	217	18	30
957	588	290	35	78
958	95	41	6	2
959	69	25	2	0
960	108	38	1	2
971	97	50	7	10
973	43	20	0	0
975	18	10	1	0
976	39	17	0	0
977	75	28	1	1
979	725	368	114	139
980	50	24	2	2
981	451	214	112	149
982	220	112	26	33
983	125	59	14	19
985	57	20	0	3
987	23	11	0	0
988	95	43	1	1
989	82	39	5	4
992	270	140	34	40
993	41	21	3	3
995	313	150	47	53
996	11	7	0	0
